[
	[
	    {
	        "speedlimit": "unknown",
	        "distance": "236 ft",
	        "steps": [
	            {
	                "points": "shecFtpzgV|Bh@",
	                "instructions": "Head <b>south</b> on <b>Potrero Ave</b> toward <b>Hermosa Ct</b>"
	            }
	        ],
	        "to": "899 Hermosa Avenue, Sunnyvale, CA 94085, USA",
	        "from": "350-390 Potrero Avenue, Sunnyvale, CA 94085, USA"
	    },
	    {
	        "speedlimit": "unknown",
	        "distance": "1 ft",
	        "steps": [
	            {
	                "points": "udecF~qzgV",
	                "instructions": "Head <b>east</b> on <b>Potrero Ave</b>"
	            }
	        ],
	        "to": "899 Hermosa Avenue, Sunnyvale, CA 94085, USA",
	        "from": "899 Hermosa Avenue, Sunnyvale, CA 94085, USA"
	    },
	    {
	        "speedlimit": "unknown",
	        "distance": "0.2 mi",
	        "steps": [
	            {
	                "points": "udecF~qzgVh@aEjAiJ",
	                "instructions": "Head <b>east</b> on <b>Hermosa Ave</b> toward <b>N Pastoria Ave</b>"
	            }
	        ],
	        "to": "360 North Pastoria Avenue, Sunnyvale, CA 94085, USA",
	        "from": "899 Hermosa Avenue, Sunnyvale, CA 94085, USA"
	    },
	    {
	        "speedlimit": "unknown",
	        "distance": "1 ft",
	        "steps": [
	            {
	                "points": "_aecFr`zgV",
	                "instructions": "Head <b>east</b> on <b>N Pastoria Ave</b>"
	            }
	        ],
	        "to": "360 North Pastoria Avenue, Sunnyvale, CA 94085, USA",
	        "from": "360 North Pastoria Avenue, Sunnyvale, CA 94085, USA"
	    },
	    {
	        "speedlimit": "unknown",
	        "distance": "0.3 mi",
	        "steps": [
	            {
	                "points": "_aecFr`zgVqHiByLqCkB_@",
	                "instructions": "Head <b>north</b> on <b>N Pastoria Ave</b> toward <b>W Maude Ave</b>"
	            }
	        ],
	        "to": "501 North Pastoria Avenue, Sunnyvale, CA 94085, USA",
	        "from": "360 North Pastoria Avenue, Sunnyvale, CA 94085, USA"
	    },
	    {
	        "speedlimit": "unknown",
	        "distance": "1 ft",
	        "steps": [
	            {
	                "points": "w{ecFvwygV",
	                "instructions": "Head <b>east</b> on <b>W Maude Ave</b>"
	            }
	        ],
	        "to": "501 North Pastoria Avenue, Sunnyvale, CA 94085, USA",
	        "from": "501 North Pastoria Avenue, Sunnyvale, CA 94085, USA"
	    },
	    {
	        "speedlimit": "unknown",
	        "distance": "0.2 mi",
	        "steps": [
	            {
	                "points": "w{ecFvwygVgAxEiB`I",
	                "instructions": "Head <b>northwest</b> on <b>W Maude Ave</b> toward <b>Potrero Ave</b>"
	            }
	        ],
	        "to": "880 West Maude Avenue, Sunnyvale, CA 94085, USA",
	        "from": "501 North Pastoria Avenue, Sunnyvale, CA 94085, USA"
	    },
	    {
	        "speedlimit": "unknown",
	        "distance": "0.3 mi",
	        "steps": [
	            {
	                "points": "iafcFrhzgVtW`G",
	                "instructions": "Head <b>south</b> on <b>Potrero Ave</b> toward <b>Hermosa Ct</b>"
	            }
	        ],
	        "to": "350-390 Potrero Avenue, Sunnyvale, CA 94085, USA",
	        "from": "880 West Maude Avenue, Sunnyvale, CA 94085, USA"
	    }
	]
]